%!PS-Adobe-2.0 EPSF-2.0
%%Title: ddos.eps
%%Creator: gnuplot 4.4 patchlevel 3
%%CreationDate: Wed Sep 24 03:18:14 2014
%%DocumentFonts: (atend)
%%BoundingBox: 50 50 410 302
%%EndComments
%%BeginProlog
/gnudict 256 dict def
gnudict begin
%
% The following true/false flags may be edited by hand if desired.
% The unit line width and grayscale image gamma correction may also be changed.
%
/Color true def
/Blacktext false def
/Solid false def
/Dashlength 1 def
/Landscape false def
/Level1 false def
/Rounded false def
/ClipToBoundingBox false def
/TransparentPatterns false def
/gnulinewidth 5.000 def
/userlinewidth gnulinewidth def
/Gamma 1.0 def
%
/vshift -50 def
/dl1 {
  10.0 Dashlength mul mul
  Rounded { currentlinewidth 0.75 mul sub dup 0 le { pop 0.01 } if } if
} def
/dl2 {
  10.0 Dashlength mul mul
  Rounded { currentlinewidth 0.75 mul add } if
} def
/hpt_ 31.5 def
/vpt_ 31.5 def
/hpt hpt_ def
/vpt vpt_ def
Level1 {} {
/SDict 10 dict def
systemdict /pdfmark known not {
  userdict /pdfmark systemdict /cleartomark get put
} if
SDict begin [
  /Title (ddos.eps)
  /Subject (gnuplot plot)
  /Creator (gnuplot 4.4 patchlevel 3)
  /Author (gustiani)
%  /Producer (gnuplot)
%  /Keywords ()
  /CreationDate (Wed Sep 24 03:18:14 2014)
  /DOCINFO pdfmark
end
} ifelse
/doclip {
  ClipToBoundingBox {
    newpath 50 50 moveto 410 50 lineto 410 302 lineto 50 302 lineto closepath
    clip
  } if
} def
%
% Gnuplot Prolog Version 4.4 (August 2010)
%
%/SuppressPDFMark true def
%
/M {moveto} bind def
/L {lineto} bind def
/R {rmoveto} bind def
/V {rlineto} bind def
/N {newpath moveto} bind def
/Z {closepath} bind def
/C {setrgbcolor} bind def
/f {rlineto fill} bind def
/g {setgray} bind def
/Gshow {show} def   % May be redefined later in the file to support UTF-8
/vpt2 vpt 2 mul def
/hpt2 hpt 2 mul def
/Lshow {currentpoint stroke M 0 vshift R 
	Blacktext {gsave 0 setgray show grestore} {show} ifelse} def
/Rshow {currentpoint stroke M dup stringwidth pop neg vshift R
	Blacktext {gsave 0 setgray show grestore} {show} ifelse} def
/Cshow {currentpoint stroke M dup stringwidth pop -2 div vshift R 
	Blacktext {gsave 0 setgray show grestore} {show} ifelse} def
/UP {dup vpt_ mul /vpt exch def hpt_ mul /hpt exch def
  /hpt2 hpt 2 mul def /vpt2 vpt 2 mul def} def
/DL {Color {setrgbcolor Solid {pop []} if 0 setdash}
 {pop pop pop 0 setgray Solid {pop []} if 0 setdash} ifelse} def
/BL {stroke userlinewidth 2 mul setlinewidth
	Rounded {1 setlinejoin 1 setlinecap} if} def
/AL {stroke userlinewidth 2 div setlinewidth
	Rounded {1 setlinejoin 1 setlinecap} if} def
/UL {dup gnulinewidth mul /userlinewidth exch def
	dup 1 lt {pop 1} if 10 mul /udl exch def} def
/PL {stroke userlinewidth setlinewidth
	Rounded {1 setlinejoin 1 setlinecap} if} def
3.8 setmiterlimit
% Default Line colors
/LCw {1 1 1} def
/LCb {0 0 0} def
/LCa {0 0 0} def
/LC0 {1 0 0} def
/LC1 {0 1 0} def
/LC2 {0 0 1} def
/LC3 {1 0 1} def
/LC4 {0 1 1} def
/LC5 {1 1 0} def
/LC6 {0 0 0} def
/LC7 {1 0.3 0} def
/LC8 {0.5 0.5 0.5} def
% Default Line Types
/LTw {PL [] 1 setgray} def
/LTb {BL [] LCb DL} def
/LTa {AL [1 udl mul 2 udl mul] 0 setdash LCa setrgbcolor} def
/LT0 {PL [] LC0 DL} def
/LT1 {PL [4 dl1 2 dl2] LC1 DL} def
/LT2 {PL [2 dl1 3 dl2] LC2 DL} def
/LT3 {PL [1 dl1 1.5 dl2] LC3 DL} def
/LT4 {PL [6 dl1 2 dl2 1 dl1 2 dl2] LC4 DL} def
/LT5 {PL [3 dl1 3 dl2 1 dl1 3 dl2] LC5 DL} def
/LT6 {PL [2 dl1 2 dl2 2 dl1 6 dl2] LC6 DL} def
/LT7 {PL [1 dl1 2 dl2 6 dl1 2 dl2 1 dl1 2 dl2] LC7 DL} def
/LT8 {PL [2 dl1 2 dl2 2 dl1 2 dl2 2 dl1 2 dl2 2 dl1 4 dl2] LC8 DL} def
/Pnt {stroke [] 0 setdash gsave 1 setlinecap M 0 0 V stroke grestore} def
/Dia {stroke [] 0 setdash 2 copy vpt add M
  hpt neg vpt neg V hpt vpt neg V
  hpt vpt V hpt neg vpt V closepath stroke
  Pnt} def
/Pls {stroke [] 0 setdash vpt sub M 0 vpt2 V
  currentpoint stroke M
  hpt neg vpt neg R hpt2 0 V stroke
 } def
/Box {stroke [] 0 setdash 2 copy exch hpt sub exch vpt add M
  0 vpt2 neg V hpt2 0 V 0 vpt2 V
  hpt2 neg 0 V closepath stroke
  Pnt} def
/Crs {stroke [] 0 setdash exch hpt sub exch vpt add M
  hpt2 vpt2 neg V currentpoint stroke M
  hpt2 neg 0 R hpt2 vpt2 V stroke} def
/TriU {stroke [] 0 setdash 2 copy vpt 1.12 mul add M
  hpt neg vpt -1.62 mul V
  hpt 2 mul 0 V
  hpt neg vpt 1.62 mul V closepath stroke
  Pnt} def
/Star {2 copy Pls Crs} def
/BoxF {stroke [] 0 setdash exch hpt sub exch vpt add M
  0 vpt2 neg V hpt2 0 V 0 vpt2 V
  hpt2 neg 0 V closepath fill} def
/TriUF {stroke [] 0 setdash vpt 1.12 mul add M
  hpt neg vpt -1.62 mul V
  hpt 2 mul 0 V
  hpt neg vpt 1.62 mul V closepath fill} def
/TriD {stroke [] 0 setdash 2 copy vpt 1.12 mul sub M
  hpt neg vpt 1.62 mul V
  hpt 2 mul 0 V
  hpt neg vpt -1.62 mul V closepath stroke
  Pnt} def
/TriDF {stroke [] 0 setdash vpt 1.12 mul sub M
  hpt neg vpt 1.62 mul V
  hpt 2 mul 0 V
  hpt neg vpt -1.62 mul V closepath fill} def
/DiaF {stroke [] 0 setdash vpt add M
  hpt neg vpt neg V hpt vpt neg V
  hpt vpt V hpt neg vpt V closepath fill} def
/Pent {stroke [] 0 setdash 2 copy gsave
  translate 0 hpt M 4 {72 rotate 0 hpt L} repeat
  closepath stroke grestore Pnt} def
/PentF {stroke [] 0 setdash gsave
  translate 0 hpt M 4 {72 rotate 0 hpt L} repeat
  closepath fill grestore} def
/Circle {stroke [] 0 setdash 2 copy
  hpt 0 360 arc stroke Pnt} def
/CircleF {stroke [] 0 setdash hpt 0 360 arc fill} def
/C0 {BL [] 0 setdash 2 copy moveto vpt 90 450 arc} bind def
/C1 {BL [] 0 setdash 2 copy moveto
	2 copy vpt 0 90 arc closepath fill
	vpt 0 360 arc closepath} bind def
/C2 {BL [] 0 setdash 2 copy moveto
	2 copy vpt 90 180 arc closepath fill
	vpt 0 360 arc closepath} bind def
/C3 {BL [] 0 setdash 2 copy moveto
	2 copy vpt 0 180 arc closepath fill
	vpt 0 360 arc closepath} bind def
/C4 {BL [] 0 setdash 2 copy moveto
	2 copy vpt 180 270 arc closepath fill
	vpt 0 360 arc closepath} bind def
/C5 {BL [] 0 setdash 2 copy moveto
	2 copy vpt 0 90 arc
	2 copy moveto
	2 copy vpt 180 270 arc closepath fill
	vpt 0 360 arc} bind def
/C6 {BL [] 0 setdash 2 copy moveto
	2 copy vpt 90 270 arc closepath fill
	vpt 0 360 arc closepath} bind def
/C7 {BL [] 0 setdash 2 copy moveto
	2 copy vpt 0 270 arc closepath fill
	vpt 0 360 arc closepath} bind def
/C8 {BL [] 0 setdash 2 copy moveto
	2 copy vpt 270 360 arc closepath fill
	vpt 0 360 arc closepath} bind def
/C9 {BL [] 0 setdash 2 copy moveto
	2 copy vpt 270 450 arc closepath fill
	vpt 0 360 arc closepath} bind def
/C10 {BL [] 0 setdash 2 copy 2 copy moveto vpt 270 360 arc closepath fill
	2 copy moveto
	2 copy vpt 90 180 arc closepath fill
	vpt 0 360 arc closepath} bind def
/C11 {BL [] 0 setdash 2 copy moveto
	2 copy vpt 0 180 arc closepath fill
	2 copy moveto
	2 copy vpt 270 360 arc closepath fill
	vpt 0 360 arc closepath} bind def
/C12 {BL [] 0 setdash 2 copy moveto
	2 copy vpt 180 360 arc closepath fill
	vpt 0 360 arc closepath} bind def
/C13 {BL [] 0 setdash 2 copy moveto
	2 copy vpt 0 90 arc closepath fill
	2 copy moveto
	2 copy vpt 180 360 arc closepath fill
	vpt 0 360 arc closepath} bind def
/C14 {BL [] 0 setdash 2 copy moveto
	2 copy vpt 90 360 arc closepath fill
	vpt 0 360 arc} bind def
/C15 {BL [] 0 setdash 2 copy vpt 0 360 arc closepath fill
	vpt 0 360 arc closepath} bind def
/Rec {newpath 4 2 roll moveto 1 index 0 rlineto 0 exch rlineto
	neg 0 rlineto closepath} bind def
/Square {dup Rec} bind def
/Bsquare {vpt sub exch vpt sub exch vpt2 Square} bind def
/S0 {BL [] 0 setdash 2 copy moveto 0 vpt rlineto BL Bsquare} bind def
/S1 {BL [] 0 setdash 2 copy vpt Square fill Bsquare} bind def
/S2 {BL [] 0 setdash 2 copy exch vpt sub exch vpt Square fill Bsquare} bind def
/S3 {BL [] 0 setdash 2 copy exch vpt sub exch vpt2 vpt Rec fill Bsquare} bind def
/S4 {BL [] 0 setdash 2 copy exch vpt sub exch vpt sub vpt Square fill Bsquare} bind def
/S5 {BL [] 0 setdash 2 copy 2 copy vpt Square fill
	exch vpt sub exch vpt sub vpt Square fill Bsquare} bind def
/S6 {BL [] 0 setdash 2 copy exch vpt sub exch vpt sub vpt vpt2 Rec fill Bsquare} bind def
/S7 {BL [] 0 setdash 2 copy exch vpt sub exch vpt sub vpt vpt2 Rec fill
	2 copy vpt Square fill Bsquare} bind def
/S8 {BL [] 0 setdash 2 copy vpt sub vpt Square fill Bsquare} bind def
/S9 {BL [] 0 setdash 2 copy vpt sub vpt vpt2 Rec fill Bsquare} bind def
/S10 {BL [] 0 setdash 2 copy vpt sub vpt Square fill 2 copy exch vpt sub exch vpt Square fill
	Bsquare} bind def
/S11 {BL [] 0 setdash 2 copy vpt sub vpt Square fill 2 copy exch vpt sub exch vpt2 vpt Rec fill
	Bsquare} bind def
/S12 {BL [] 0 setdash 2 copy exch vpt sub exch vpt sub vpt2 vpt Rec fill Bsquare} bind def
/S13 {BL [] 0 setdash 2 copy exch vpt sub exch vpt sub vpt2 vpt Rec fill
	2 copy vpt Square fill Bsquare} bind def
/S14 {BL [] 0 setdash 2 copy exch vpt sub exch vpt sub vpt2 vpt Rec fill
	2 copy exch vpt sub exch vpt Square fill Bsquare} bind def
/S15 {BL [] 0 setdash 2 copy Bsquare fill Bsquare} bind def
/D0 {gsave translate 45 rotate 0 0 S0 stroke grestore} bind def
/D1 {gsave translate 45 rotate 0 0 S1 stroke grestore} bind def
/D2 {gsave translate 45 rotate 0 0 S2 stroke grestore} bind def
/D3 {gsave translate 45 rotate 0 0 S3 stroke grestore} bind def
/D4 {gsave translate 45 rotate 0 0 S4 stroke grestore} bind def
/D5 {gsave translate 45 rotate 0 0 S5 stroke grestore} bind def
/D6 {gsave translate 45 rotate 0 0 S6 stroke grestore} bind def
/D7 {gsave translate 45 rotate 0 0 S7 stroke grestore} bind def
/D8 {gsave translate 45 rotate 0 0 S8 stroke grestore} bind def
/D9 {gsave translate 45 rotate 0 0 S9 stroke grestore} bind def
/D10 {gsave translate 45 rotate 0 0 S10 stroke grestore} bind def
/D11 {gsave translate 45 rotate 0 0 S11 stroke grestore} bind def
/D12 {gsave translate 45 rotate 0 0 S12 stroke grestore} bind def
/D13 {gsave translate 45 rotate 0 0 S13 stroke grestore} bind def
/D14 {gsave translate 45 rotate 0 0 S14 stroke grestore} bind def
/D15 {gsave translate 45 rotate 0 0 S15 stroke grestore} bind def
/DiaE {stroke [] 0 setdash vpt add M
  hpt neg vpt neg V hpt vpt neg V
  hpt vpt V hpt neg vpt V closepath stroke} def
/BoxE {stroke [] 0 setdash exch hpt sub exch vpt add M
  0 vpt2 neg V hpt2 0 V 0 vpt2 V
  hpt2 neg 0 V closepath stroke} def
/TriUE {stroke [] 0 setdash vpt 1.12 mul add M
  hpt neg vpt -1.62 mul V
  hpt 2 mul 0 V
  hpt neg vpt 1.62 mul V closepath stroke} def
/TriDE {stroke [] 0 setdash vpt 1.12 mul sub M
  hpt neg vpt 1.62 mul V
  hpt 2 mul 0 V
  hpt neg vpt -1.62 mul V closepath stroke} def
/PentE {stroke [] 0 setdash gsave
  translate 0 hpt M 4 {72 rotate 0 hpt L} repeat
  closepath stroke grestore} def
/CircE {stroke [] 0 setdash 
  hpt 0 360 arc stroke} def
/Opaque {gsave closepath 1 setgray fill grestore 0 setgray closepath} def
/DiaW {stroke [] 0 setdash vpt add M
  hpt neg vpt neg V hpt vpt neg V
  hpt vpt V hpt neg vpt V Opaque stroke} def
/BoxW {stroke [] 0 setdash exch hpt sub exch vpt add M
  0 vpt2 neg V hpt2 0 V 0 vpt2 V
  hpt2 neg 0 V Opaque stroke} def
/TriUW {stroke [] 0 setdash vpt 1.12 mul add M
  hpt neg vpt -1.62 mul V
  hpt 2 mul 0 V
  hpt neg vpt 1.62 mul V Opaque stroke} def
/TriDW {stroke [] 0 setdash vpt 1.12 mul sub M
  hpt neg vpt 1.62 mul V
  hpt 2 mul 0 V
  hpt neg vpt -1.62 mul V Opaque stroke} def
/PentW {stroke [] 0 setdash gsave
  translate 0 hpt M 4 {72 rotate 0 hpt L} repeat
  Opaque stroke grestore} def
/CircW {stroke [] 0 setdash 
  hpt 0 360 arc Opaque stroke} def
/BoxFill {gsave Rec 1 setgray fill grestore} def
/Density {
  /Fillden exch def
  currentrgbcolor
  /ColB exch def /ColG exch def /ColR exch def
  /ColR ColR Fillden mul Fillden sub 1 add def
  /ColG ColG Fillden mul Fillden sub 1 add def
  /ColB ColB Fillden mul Fillden sub 1 add def
  ColR ColG ColB setrgbcolor} def
/BoxColFill {gsave Rec PolyFill} def
/PolyFill {gsave Density fill grestore grestore} def
/h {rlineto rlineto rlineto gsave closepath fill grestore} bind def
%
% PostScript Level 1 Pattern Fill routine for rectangles
% Usage: x y w h s a XX PatternFill
%	x,y = lower left corner of box to be filled
%	w,h = width and height of box
%	  a = angle in degrees between lines and x-axis
%	 XX = 0/1 for no/yes cross-hatch
%
/PatternFill {gsave /PFa [ 9 2 roll ] def
  PFa 0 get PFa 2 get 2 div add PFa 1 get PFa 3 get 2 div add translate
  PFa 2 get -2 div PFa 3 get -2 div PFa 2 get PFa 3 get Rec
  gsave 1 setgray fill grestore clip
  currentlinewidth 0.5 mul setlinewidth
  /PFs PFa 2 get dup mul PFa 3 get dup mul add sqrt def
  0 0 M PFa 5 get rotate PFs -2 div dup translate
  0 1 PFs PFa 4 get div 1 add floor cvi
	{PFa 4 get mul 0 M 0 PFs V} for
  0 PFa 6 get ne {
	0 1 PFs PFa 4 get div 1 add floor cvi
	{PFa 4 get mul 0 2 1 roll M PFs 0 V} for
 } if
  stroke grestore} def
%
/languagelevel where
 {pop languagelevel} {1} ifelse
 2 lt
	{/InterpretLevel1 true def}
	{/InterpretLevel1 Level1 def}
 ifelse
%
% PostScript level 2 pattern fill definitions
%
/Level2PatternFill {
/Tile8x8 {/PaintType 2 /PatternType 1 /TilingType 1 /BBox [0 0 8 8] /XStep 8 /YStep 8}
	bind def
/KeepColor {currentrgbcolor [/Pattern /DeviceRGB] setcolorspace} bind def
<< Tile8x8
 /PaintProc {0.5 setlinewidth pop 0 0 M 8 8 L 0 8 M 8 0 L stroke} 
>> matrix makepattern
/Pat1 exch def
<< Tile8x8
 /PaintProc {0.5 setlinewidth pop 0 0 M 8 8 L 0 8 M 8 0 L stroke
	0 4 M 4 8 L 8 4 L 4 0 L 0 4 L stroke}
>> matrix makepattern
/Pat2 exch def
<< Tile8x8
 /PaintProc {0.5 setlinewidth pop 0 0 M 0 8 L
	8 8 L 8 0 L 0 0 L fill}
>> matrix makepattern
/Pat3 exch def
<< Tile8x8
 /PaintProc {0.5 setlinewidth pop -4 8 M 8 -4 L
	0 12 M 12 0 L stroke}
>> matrix makepattern
/Pat4 exch def
<< Tile8x8
 /PaintProc {0.5 setlinewidth pop -4 0 M 8 12 L
	0 -4 M 12 8 L stroke}
>> matrix makepattern
/Pat5 exch def
<< Tile8x8
 /PaintProc {0.5 setlinewidth pop -2 8 M 4 -4 L
	0 12 M 8 -4 L 4 12 M 10 0 L stroke}
>> matrix makepattern
/Pat6 exch def
<< Tile8x8
 /PaintProc {0.5 setlinewidth pop -2 0 M 4 12 L
	0 -4 M 8 12 L 4 -4 M 10 8 L stroke}
>> matrix makepattern
/Pat7 exch def
<< Tile8x8
 /PaintProc {0.5 setlinewidth pop 8 -2 M -4 4 L
	12 0 M -4 8 L 12 4 M 0 10 L stroke}
>> matrix makepattern
/Pat8 exch def
<< Tile8x8
 /PaintProc {0.5 setlinewidth pop 0 -2 M 12 4 L
	-4 0 M 12 8 L -4 4 M 8 10 L stroke}
>> matrix makepattern
/Pat9 exch def
/Pattern1 {PatternBgnd KeepColor Pat1 setpattern} bind def
/Pattern2 {PatternBgnd KeepColor Pat2 setpattern} bind def
/Pattern3 {PatternBgnd KeepColor Pat3 setpattern} bind def
/Pattern4 {PatternBgnd KeepColor Landscape {Pat5} {Pat4} ifelse setpattern} bind def
/Pattern5 {PatternBgnd KeepColor Landscape {Pat4} {Pat5} ifelse setpattern} bind def
/Pattern6 {PatternBgnd KeepColor Landscape {Pat9} {Pat6} ifelse setpattern} bind def
/Pattern7 {PatternBgnd KeepColor Landscape {Pat8} {Pat7} ifelse setpattern} bind def
} def
%
%
%End of PostScript Level 2 code
%
/PatternBgnd {
  TransparentPatterns {} {gsave 1 setgray fill grestore} ifelse
} def
%
% Substitute for Level 2 pattern fill codes with
% grayscale if Level 2 support is not selected.
%
/Level1PatternFill {
/Pattern1 {0.250 Density} bind def
/Pattern2 {0.500 Density} bind def
/Pattern3 {0.750 Density} bind def
/Pattern4 {0.125 Density} bind def
/Pattern5 {0.375 Density} bind def
/Pattern6 {0.625 Density} bind def
/Pattern7 {0.875 Density} bind def
} def
%
% Now test for support of Level 2 code
%
Level1 {Level1PatternFill} {Level2PatternFill} ifelse
%
/Symbol-Oblique /Symbol findfont [1 0 .167 1 0 0] makefont
dup length dict begin {1 index /FID eq {pop pop} {def} ifelse} forall
currentdict end definefont pop
/MFshow {
   { dup 5 get 3 ge
     { 5 get 3 eq {gsave} {grestore} ifelse }
     {dup dup 0 get findfont exch 1 get scalefont setfont
     [ currentpoint ] exch dup 2 get 0 exch R dup 5 get 2 ne {dup dup 6
     get exch 4 get {Gshow} {stringwidth pop 0 R} ifelse }if dup 5 get 0 eq
     {dup 3 get {2 get neg 0 exch R pop} {pop aload pop M} ifelse} {dup 5
     get 1 eq {dup 2 get exch dup 3 get exch 6 get stringwidth pop -2 div
     dup 0 R} {dup 6 get stringwidth pop -2 div 0 R 6 get
     show 2 index {aload pop M neg 3 -1 roll neg R pop pop} {pop pop pop
     pop aload pop M} ifelse }ifelse }ifelse }
     ifelse }
   forall} def
/Gswidth {dup type /stringtype eq {stringwidth} {pop (n) stringwidth} ifelse} def
/MFwidth {0 exch { dup 5 get 3 ge { 5 get 3 eq { 0 } { pop } ifelse }
 {dup 3 get{dup dup 0 get findfont exch 1 get scalefont setfont
     6 get Gswidth pop add} {pop} ifelse} ifelse} forall} def
/MLshow { currentpoint stroke M
  0 exch R
  Blacktext {gsave 0 setgray MFshow grestore} {MFshow} ifelse } bind def
/MRshow { currentpoint stroke M
  exch dup MFwidth neg 3 -1 roll R
  Blacktext {gsave 0 setgray MFshow grestore} {MFshow} ifelse } bind def
/MCshow { currentpoint stroke M
  exch dup MFwidth -2 div 3 -1 roll R
  Blacktext {gsave 0 setgray MFshow grestore} {MFshow} ifelse } bind def
/XYsave    { [( ) 1 2 true false 3 ()] } bind def
/XYrestore { [( ) 1 2 true false 4 ()] } bind def
end
%%EndProlog
gnudict begin
gsave
doclip
50 50 translate
0.050 0.050 scale
0 setgray
newpath
(Helvetica) findfont 150 scalefont setfont
1.000 UL
LTb
915 891 M
63 0 V
5951 0 R
-63 0 V
stroke
825 891 M
[ [(Helvetica) 150.0 0.0 true true 0 (-0.004)]
] -50.0 MRshow
1.000 UL
LTb
915 1713 M
63 0 V
5951 0 R
-63 0 V
stroke
825 1713 M
[ [(Helvetica) 150.0 0.0 true true 0 (-0.002)]
] -50.0 MRshow
1.000 UL
LTb
915 2535 M
63 0 V
5951 0 R
-63 0 V
stroke
825 2535 M
[ [(Helvetica) 150.0 0.0 true true 0 ( 0)]
] -50.0 MRshow
1.000 UL
LTb
915 3356 M
63 0 V
5951 0 R
-63 0 V
stroke
825 3356 M
[ [(Helvetica) 150.0 0.0 true true 0 ( 0.002)]
] -50.0 MRshow
1.000 UL
LTb
915 4178 M
63 0 V
5951 0 R
-63 0 V
stroke
825 4178 M
[ [(Helvetica) 150.0 0.0 true true 0 ( 0.004)]
] -50.0 MRshow
1.000 UL
LTb
1462 480 M
0 63 V
0 4046 R
0 -63 V
stroke
1462 330 M
[ [(Helvetica) 150.0 0.0 true true 0 ( 10)]
] -50.0 MCshow
1.000 UL
LTb
2069 480 M
0 63 V
0 4046 R
0 -63 V
stroke
2069 330 M
[ [(Helvetica) 150.0 0.0 true true 0 ( 20)]
] -50.0 MCshow
1.000 UL
LTb
2677 480 M
0 63 V
0 4046 R
0 -63 V
stroke
2677 330 M
[ [(Helvetica) 150.0 0.0 true true 0 ( 30)]
] -50.0 MCshow
1.000 UL
LTb
3284 480 M
0 63 V
0 4046 R
0 -63 V
stroke
3284 330 M
[ [(Helvetica) 150.0 0.0 true true 0 ( 40)]
] -50.0 MCshow
1.000 UL
LTb
3892 480 M
0 63 V
0 4046 R
0 -63 V
stroke
3892 330 M
[ [(Helvetica) 150.0 0.0 true true 0 ( 50)]
] -50.0 MCshow
1.000 UL
LTb
4499 480 M
0 63 V
0 4046 R
0 -63 V
stroke
4499 330 M
[ [(Helvetica) 150.0 0.0 true true 0 ( 60)]
] -50.0 MCshow
1.000 UL
LTb
5107 480 M
0 63 V
0 4046 R
0 -63 V
stroke
5107 330 M
[ [(Helvetica) 150.0 0.0 true true 0 ( 70)]
] -50.0 MCshow
1.000 UL
LTb
5714 480 M
0 63 V
0 4046 R
0 -63 V
stroke
5714 330 M
[ [(Helvetica) 150.0 0.0 true true 0 ( 80)]
] -50.0 MCshow
1.000 UL
LTb
6322 480 M
0 63 V
0 4046 R
0 -63 V
stroke
6322 330 M
[ [(Helvetica) 150.0 0.0 true true 0 ( 90)]
] -50.0 MCshow
1.000 UL
LTb
6929 480 M
0 63 V
0 4046 R
0 -63 V
stroke
6929 330 M
[ [(Helvetica) 150.0 0.0 true true 0 ( 100)]
] -50.0 MCshow
1.000 UL
LTb
1.000 UL
LTa
915 2535 M
6014 0 V
stroke
LTb
915 4589 N
915 480 L
6014 0 V
0 4109 V
-6014 0 V
Z stroke
LCb setrgbcolor
120 2534 M
currentpoint gsave translate -270 rotate 0 0 moveto
[ [(Helvetica) 150.0 0.0 true true 0 (n)]
[(Helvetica) 120.0 75.0 true true 0 (0)]
[(Helvetica) 150.0 0.0 true true 0 (\(R\) - n\(R\))]
] -65.0 MCshow
grestore
LTb
LCb setrgbcolor
3922 105 M
[ [(Helvetica) 150.0 0.0 true true 0 (|R|)]
] -50.0 MCshow
LTb
3922 4814 M
[ [(Helvetica) 150.0 0.0 true true 0 (Inside band, )]
[(Symbol) 150.0 0.0 true true 0 (e)]
[(Helvetica) 120.0 -45.0 true true 0 (imp)]
[(Helvetica) 150.0 0.0 true true 0 ( = 8.0)]
] -35.0 MCshow
1.000 UP
1.000 UL
LTb
% Begin plot #1
2.000 UL
LT0
0.67 0.00 0.90 C LCb setrgbcolor
6236 4451 M
[ [(Symbol) 150.0 0.0 true true 0 (e)]
[(Helvetica) 150.0 0.0 true true 0 ( = -0.50613)]
] -50.0 MRshow
LT0
0.67 0.00 0.90 C 6326 4451 M
423 0 V
945 480 M
31 3950 V
60 -73 V
1081 480 L
32 0 R
45 3987 V
61 -701 V
1268 480 L
22 0 R
50 3613 V
61 -526 V
1457 480 L
9 0 R
56 3276 V
61 -334 V
1644 656 L
61 2823 V
60 -175 V
61 -2293 V
61 2248 V
61 -61 V
60 -1903 V
61 1791 V
61 24 V
61 -1578 V
60 1418 V
61 76 V
61 -1305 V
61 1125 V
60 112 V
61 -1081 V
61 886 V
61 130 V
60 -889 V
61 701 V
61 136 V
61 -735 V
60 549 V
61 139 V
61 -602 V
61 430 V
60 131 V
61 -497 V
61 337 V
61 126 V
60 -406 V
61 260 V
61 114 V
61 -331 V
60 204 V
61 105 V
61 -273 V
61 156 V
60 94 V
61 -220 V
61 120 V
61 82 V
60 -182 V
61 93 V
61 74 V
61 -147 V
60 69 V
61 64 V
61 -119 V
61 55 V
60 55 V
61 -98 V
61 39 V
61 49 V
60 -78 V
61 29 V
61 40 V
61 -64 V
60 24 V
61 35 V
61 -51 V
61 15 V
60 30 V
61 -40 V
61 12 V
61 23 V
60 -33 V
61 9 V
61 21 V
61 -27 V
60 6 V
61 17 V
61 -20 V
61 5 V
60 12 V
61 -17 V
61 5 V
61 10 V
60 -13 V
61 3 V
61 8 V
61 -11 V
60 5 V
61 4 V
61 -9 V
61 6 V
60 1 V
61 -7 V
% End plot #1
% Begin plot #2
stroke
LT0
0.90 0.22 0.00 C LCb setrgbcolor
6236 4301 M
[ [(Symbol) 150.0 0.0 true true 0 (e)]
[(Helvetica) 150.0 0.0 true true 0 ( = 0.0)]
] -50.0 MRshow
LT0
0.90 0.22 0.00 C 6326 4301 M
423 0 V
945 480 M
31 3950 V
60 -73 V
1081 480 L
32 0 R
45 3987 V
61 -701 V
1268 480 L
22 0 R
50 3613 V
61 -526 V
1457 480 L
9 0 R
56 3276 V
61 -334 V
1644 656 L
61 2823 V
60 -175 V
61 -2293 V
61 2248 V
61 -61 V
60 -1903 V
61 1791 V
61 24 V
61 -1578 V
60 1418 V
61 76 V
61 -1305 V
61 1125 V
60 112 V
61 -1081 V
61 886 V
61 130 V
60 -889 V
61 701 V
61 136 V
61 -735 V
60 549 V
61 139 V
61 -602 V
61 430 V
60 131 V
61 -497 V
61 337 V
61 126 V
60 -406 V
61 260 V
61 114 V
61 -331 V
60 204 V
61 105 V
61 -273 V
61 156 V
60 94 V
61 -220 V
61 120 V
61 82 V
60 -182 V
61 93 V
61 74 V
61 -147 V
60 69 V
61 64 V
61 -119 V
61 55 V
60 55 V
61 -98 V
61 39 V
61 49 V
60 -78 V
61 29 V
61 40 V
61 -64 V
60 24 V
61 35 V
61 -51 V
61 15 V
60 30 V
61 -40 V
61 12 V
61 23 V
60 -33 V
61 9 V
61 21 V
61 -27 V
60 6 V
61 17 V
61 -20 V
61 5 V
60 12 V
61 -17 V
61 5 V
61 10 V
60 -13 V
61 3 V
61 8 V
61 -11 V
60 5 V
61 4 V
61 -9 V
61 6 V
60 1 V
61 -7 V
% End plot #2
% Begin plot #3
stroke
LT0
0.14 0.36 1.00 C LCb setrgbcolor
6236 4151 M
[ [(Symbol) 150.0 0.0 true true 0 (e)]
[(Helvetica) 150.0 0.0 true true 0 ( = 1.0)]
] -50.0 MRshow
LT0
0.14 0.36 1.00 C 6326 4151 M
423 0 V
988 4589 M
1036 819 L
61 3295 V
61 -3083 V
61 2875 V
60 -2632 V
61 2429 V
61 -2257 V
61 2099 V
60 -1951 V
61 1827 V
61 -1713 V
61 1601 V
60 -1494 V
61 1398 V
61 -1319 V
61 1235 V
60 -1152 V
61 1084 V
61 -1024 V
61 968 V
60 -902 V
61 844 V
61 -801 V
61 756 V
60 -708 V
61 657 V
61 -620 V
61 591 V
60 -552 V
61 515 V
61 -480 V
61 459 V
60 -438 V
61 404 V
61 -379 V
61 357 V
60 -342 V
61 327 V
61 -296 V
61 280 V
60 -269 V
61 254 V
61 -242 V
61 216 V
60 -202 V
61 200 V
61 -185 V
61 175 V
60 -160 V
61 148 V
61 -151 V
61 141 V
60 -128 V
61 121 V
61 -110 V
61 112 V
60 -108 V
61 93 V
61 -88 V
61 82 V
60 -80 V
61 82 V
61 -70 V
61 62 V
60 -60 V
61 58 V
61 -60 V
61 53 V
60 -43 V
61 44 V
61 -43 V
61 45 V
60 -44 V
61 32 V
61 -30 V
61 35 V
60 -33 V
61 36 V
61 -31 V
61 19 V
60 -22 V
61 27 V
61 -25 V
61 26 V
60 -20 V
61 13 V
61 -18 V
61 22 V
60 -19 V
61 19 V
61 -16 V
61 13 V
60 -16 V
61 19 V
61 -17 V
61 17 V
60 -16 V
61 15 V
% End plot #3
% Begin plot #4
stroke
LT0
0.90 0.22 0.00 C LCb setrgbcolor
6236 4001 M
[ [(Symbol) 150.0 0.0 true true 0 (e)]
[(Helvetica) 150.0 0.0 true true 0 ( = 2.0)]
] -50.0 MRshow
LT0
0.90 0.22 0.00 C 6326 4001 M
423 0 V
915 3539 M
957 480 L
112 4109 R
28 -1896 V
38 1896 V
50 0 R
34 -1539 V
60 1183 V
61 -1563 V
61 517 V
61 -786 V
60 291 V
61 -344 V
61 186 V
61 -137 V
60 117 V
61 -52 V
61 68 V
61 -21 V
60 32 V
61 -13 V
61 15 V
61 -9 V
60 5 V
61 -4 V
61 2 V
61 -3 V
60 1 V
61 -1 V
61 1 V
61 -1 V
60 1 V
61 -1 V
61 1 V
61 0 V
60 0 V
61 0 V
61 0 V
61 -1 V
60 0 V
61 0 V
61 0 V
61 0 V
60 0 V
61 1 V
61 0 V
61 0 V
60 0 V
61 0 V
61 0 V
61 -1 V
60 0 V
61 0 V
61 0 V
61 0 V
60 0 V
61 1 V
61 0 V
61 0 V
60 0 V
61 0 V
61 0 V
61 -1 V
60 -1 V
61 0 V
61 1 V
61 0 V
60 1 V
61 0 V
61 0 V
61 1 V
60 -1 V
61 0 V
61 -1 V
61 1 V
60 0 V
61 0 V
61 0 V
61 0 V
60 -1 V
61 0 V
61 -1 V
61 0 V
60 0 V
61 1 V
61 1 V
61 -1 V
60 -1 V
61 0 V
61 0 V
61 1 V
60 1 V
61 -1 V
61 0 V
61 0 V
60 0 V
61 0 V
61 1 V
61 -1 V
60 0 V
61 0 V
% End plot #4
% Begin plot #5
stroke
LT0
0.00 0.90 0.22 C LCb setrgbcolor
6236 3851 M
[ [(Symbol) 150.0 0.0 true true 0 (e)]
[(Helvetica) 150.0 0.0 true true 0 ( = 4.0)]
] -50.0 MRshow
LT0
0.00 0.90 0.22 C 6326 3851 M
423 0 V
915 3539 M
957 480 L
112 4109 R
28 -1896 V
38 1896 V
50 0 R
34 -1539 V
60 1183 V
61 -1563 V
61 517 V
61 -786 V
60 291 V
61 -344 V
61 186 V
61 -137 V
60 117 V
61 -52 V
61 68 V
61 -21 V
60 32 V
61 -13 V
61 15 V
61 -9 V
60 5 V
61 -4 V
61 2 V
61 -3 V
60 1 V
61 -1 V
61 1 V
61 -1 V
60 1 V
61 -1 V
61 1 V
61 0 V
60 0 V
61 0 V
61 0 V
61 -1 V
60 0 V
61 0 V
61 0 V
61 0 V
60 0 V
61 1 V
61 0 V
61 0 V
60 0 V
61 0 V
61 0 V
61 -1 V
60 0 V
61 0 V
61 0 V
61 0 V
60 0 V
61 1 V
61 0 V
61 0 V
60 0 V
61 0 V
61 0 V
61 -1 V
60 -1 V
61 0 V
61 1 V
61 0 V
60 1 V
61 0 V
61 0 V
61 1 V
60 -1 V
61 0 V
61 -1 V
61 1 V
60 0 V
61 0 V
61 0 V
61 0 V
60 -1 V
61 0 V
61 -1 V
61 0 V
60 0 V
61 1 V
61 1 V
61 -1 V
60 -1 V
61 0 V
61 0 V
61 1 V
60 1 V
61 -1 V
61 0 V
61 0 V
60 0 V
61 0 V
61 1 V
61 -1 V
60 0 V
61 0 V
% End plot #5
stroke
1.000 UL
LTb
915 4589 N
915 480 L
6014 0 V
0 4109 V
-6014 0 V
Z stroke
1.000 UP
1.000 UL
LTb
stroke
grestore
end
showpage
%%Trailer
%%DocumentFonts: Symbol Helvetica
