char calc = 'r'; // e | r
double W0  = -0.5;    //Hopping coefficient
double a   = 1.0;     //Lattice length
double e0  = 2.0;     //Energy
double gamm    = 3e-2;//gamma
int Rg[3]      = {150, 0, 0}; //R for expansion G
int N_k = 200;       //k-points
double e[5] = {5.0, 6.0, 7.0, 8.0, 9.0}; //observed energy for delta n
int N_e = 5; //How many energy observed
double e_imp = 8.0;
