%!PS-Adobe-2.0 EPSF-2.0
%%Title: ddos.eps
%%Creator: gnuplot 4.4 patchlevel 3
%%CreationDate: Mon Oct 13 22:27:24 2014
%%DocumentFonts: (atend)
%%BoundingBox: 50 50 410 302
%%EndComments
%%BeginProlog
/gnudict 256 dict def
gnudict begin
%
% The following true/false flags may be edited by hand if desired.
% The unit line width and grayscale image gamma correction may also be changed.
%
/Color true def
/Blacktext false def
/Solid false def
/Dashlength 1 def
/Landscape false def
/Level1 false def
/Rounded false def
/ClipToBoundingBox false def
/TransparentPatterns false def
/gnulinewidth 5.000 def
/userlinewidth gnulinewidth def
/Gamma 1.0 def
%
/vshift -50 def
/dl1 {
  10.0 Dashlength mul mul
  Rounded { currentlinewidth 0.75 mul sub dup 0 le { pop 0.01 } if } if
} def
/dl2 {
  10.0 Dashlength mul mul
  Rounded { currentlinewidth 0.75 mul add } if
} def
/hpt_ 31.5 def
/vpt_ 31.5 def
/hpt hpt_ def
/vpt vpt_ def
Level1 {} {
/SDict 10 dict def
systemdict /pdfmark known not {
  userdict /pdfmark systemdict /cleartomark get put
} if
SDict begin [
  /Title (ddos.eps)
  /Subject (gnuplot plot)
  /Creator (gnuplot 4.4 patchlevel 3)
  /Author (gustiani)
%  /Producer (gnuplot)
%  /Keywords ()
  /CreationDate (Mon Oct 13 22:27:24 2014)
  /DOCINFO pdfmark
end
} ifelse
/doclip {
  ClipToBoundingBox {
    newpath 50 50 moveto 410 50 lineto 410 302 lineto 50 302 lineto closepath
    clip
  } if
} def
%
% Gnuplot Prolog Version 4.4 (August 2010)
%
%/SuppressPDFMark true def
%
/M {moveto} bind def
/L {lineto} bind def
/R {rmoveto} bind def
/V {rlineto} bind def
/N {newpath moveto} bind def
/Z {closepath} bind def
/C {setrgbcolor} bind def
/f {rlineto fill} bind def
/g {setgray} bind def
/Gshow {show} def   % May be redefined later in the file to support UTF-8
/vpt2 vpt 2 mul def
/hpt2 hpt 2 mul def
/Lshow {currentpoint stroke M 0 vshift R 
	Blacktext {gsave 0 setgray show grestore} {show} ifelse} def
/Rshow {currentpoint stroke M dup stringwidth pop neg vshift R
	Blacktext {gsave 0 setgray show grestore} {show} ifelse} def
/Cshow {currentpoint stroke M dup stringwidth pop -2 div vshift R 
	Blacktext {gsave 0 setgray show grestore} {show} ifelse} def
/UP {dup vpt_ mul /vpt exch def hpt_ mul /hpt exch def
  /hpt2 hpt 2 mul def /vpt2 vpt 2 mul def} def
/DL {Color {setrgbcolor Solid {pop []} if 0 setdash}
 {pop pop pop 0 setgray Solid {pop []} if 0 setdash} ifelse} def
/BL {stroke userlinewidth 2 mul setlinewidth
	Rounded {1 setlinejoin 1 setlinecap} if} def
/AL {stroke userlinewidth 2 div setlinewidth
	Rounded {1 setlinejoin 1 setlinecap} if} def
/UL {dup gnulinewidth mul /userlinewidth exch def
	dup 1 lt {pop 1} if 10 mul /udl exch def} def
/PL {stroke userlinewidth setlinewidth
	Rounded {1 setlinejoin 1 setlinecap} if} def
3.8 setmiterlimit
% Default Line colors
/LCw {1 1 1} def
/LCb {0 0 0} def
/LCa {0 0 0} def
/LC0 {1 0 0} def
/LC1 {0 1 0} def
/LC2 {0 0 1} def
/LC3 {1 0 1} def
/LC4 {0 1 1} def
/LC5 {1 1 0} def
/LC6 {0 0 0} def
/LC7 {1 0.3 0} def
/LC8 {0.5 0.5 0.5} def
% Default Line Types
/LTw {PL [] 1 setgray} def
/LTb {BL [] LCb DL} def
/LTa {AL [1 udl mul 2 udl mul] 0 setdash LCa setrgbcolor} def
/LT0 {PL [] LC0 DL} def
/LT1 {PL [4 dl1 2 dl2] LC1 DL} def
/LT2 {PL [2 dl1 3 dl2] LC2 DL} def
/LT3 {PL [1 dl1 1.5 dl2] LC3 DL} def
/LT4 {PL [6 dl1 2 dl2 1 dl1 2 dl2] LC4 DL} def
/LT5 {PL [3 dl1 3 dl2 1 dl1 3 dl2] LC5 DL} def
/LT6 {PL [2 dl1 2 dl2 2 dl1 6 dl2] LC6 DL} def
/LT7 {PL [1 dl1 2 dl2 6 dl1 2 dl2 1 dl1 2 dl2] LC7 DL} def
/LT8 {PL [2 dl1 2 dl2 2 dl1 2 dl2 2 dl1 2 dl2 2 dl1 4 dl2] LC8 DL} def
/Pnt {stroke [] 0 setdash gsave 1 setlinecap M 0 0 V stroke grestore} def
/Dia {stroke [] 0 setdash 2 copy vpt add M
  hpt neg vpt neg V hpt vpt neg V
  hpt vpt V hpt neg vpt V closepath stroke
  Pnt} def
/Pls {stroke [] 0 setdash vpt sub M 0 vpt2 V
  currentpoint stroke M
  hpt neg vpt neg R hpt2 0 V stroke
 } def
/Box {stroke [] 0 setdash 2 copy exch hpt sub exch vpt add M
  0 vpt2 neg V hpt2 0 V 0 vpt2 V
  hpt2 neg 0 V closepath stroke
  Pnt} def
/Crs {stroke [] 0 setdash exch hpt sub exch vpt add M
  hpt2 vpt2 neg V currentpoint stroke M
  hpt2 neg 0 R hpt2 vpt2 V stroke} def
/TriU {stroke [] 0 setdash 2 copy vpt 1.12 mul add M
  hpt neg vpt -1.62 mul V
  hpt 2 mul 0 V
  hpt neg vpt 1.62 mul V closepath stroke
  Pnt} def
/Star {2 copy Pls Crs} def
/BoxF {stroke [] 0 setdash exch hpt sub exch vpt add M
  0 vpt2 neg V hpt2 0 V 0 vpt2 V
  hpt2 neg 0 V closepath fill} def
/TriUF {stroke [] 0 setdash vpt 1.12 mul add M
  hpt neg vpt -1.62 mul V
  hpt 2 mul 0 V
  hpt neg vpt 1.62 mul V closepath fill} def
/TriD {stroke [] 0 setdash 2 copy vpt 1.12 mul sub M
  hpt neg vpt 1.62 mul V
  hpt 2 mul 0 V
  hpt neg vpt -1.62 mul V closepath stroke
  Pnt} def
/TriDF {stroke [] 0 setdash vpt 1.12 mul sub M
  hpt neg vpt 1.62 mul V
  hpt 2 mul 0 V
  hpt neg vpt -1.62 mul V closepath fill} def
/DiaF {stroke [] 0 setdash vpt add M
  hpt neg vpt neg V hpt vpt neg V
  hpt vpt V hpt neg vpt V closepath fill} def
/Pent {stroke [] 0 setdash 2 copy gsave
  translate 0 hpt M 4 {72 rotate 0 hpt L} repeat
  closepath stroke grestore Pnt} def
/PentF {stroke [] 0 setdash gsave
  translate 0 hpt M 4 {72 rotate 0 hpt L} repeat
  closepath fill grestore} def
/Circle {stroke [] 0 setdash 2 copy
  hpt 0 360 arc stroke Pnt} def
/CircleF {stroke [] 0 setdash hpt 0 360 arc fill} def
/C0 {BL [] 0 setdash 2 copy moveto vpt 90 450 arc} bind def
/C1 {BL [] 0 setdash 2 copy moveto
	2 copy vpt 0 90 arc closepath fill
	vpt 0 360 arc closepath} bind def
/C2 {BL [] 0 setdash 2 copy moveto
	2 copy vpt 90 180 arc closepath fill
	vpt 0 360 arc closepath} bind def
/C3 {BL [] 0 setdash 2 copy moveto
	2 copy vpt 0 180 arc closepath fill
	vpt 0 360 arc closepath} bind def
/C4 {BL [] 0 setdash 2 copy moveto
	2 copy vpt 180 270 arc closepath fill
	vpt 0 360 arc closepath} bind def
/C5 {BL [] 0 setdash 2 copy moveto
	2 copy vpt 0 90 arc
	2 copy moveto
	2 copy vpt 180 270 arc closepath fill
	vpt 0 360 arc} bind def
/C6 {BL [] 0 setdash 2 copy moveto
	2 copy vpt 90 270 arc closepath fill
	vpt 0 360 arc closepath} bind def
/C7 {BL [] 0 setdash 2 copy moveto
	2 copy vpt 0 270 arc closepath fill
	vpt 0 360 arc closepath} bind def
/C8 {BL [] 0 setdash 2 copy moveto
	2 copy vpt 270 360 arc closepath fill
	vpt 0 360 arc closepath} bind def
/C9 {BL [] 0 setdash 2 copy moveto
	2 copy vpt 270 450 arc closepath fill
	vpt 0 360 arc closepath} bind def
/C10 {BL [] 0 setdash 2 copy 2 copy moveto vpt 270 360 arc closepath fill
	2 copy moveto
	2 copy vpt 90 180 arc closepath fill
	vpt 0 360 arc closepath} bind def
/C11 {BL [] 0 setdash 2 copy moveto
	2 copy vpt 0 180 arc closepath fill
	2 copy moveto
	2 copy vpt 270 360 arc closepath fill
	vpt 0 360 arc closepath} bind def
/C12 {BL [] 0 setdash 2 copy moveto
	2 copy vpt 180 360 arc closepath fill
	vpt 0 360 arc closepath} bind def
/C13 {BL [] 0 setdash 2 copy moveto
	2 copy vpt 0 90 arc closepath fill
	2 copy moveto
	2 copy vpt 180 360 arc closepath fill
	vpt 0 360 arc closepath} bind def
/C14 {BL [] 0 setdash 2 copy moveto
	2 copy vpt 90 360 arc closepath fill
	vpt 0 360 arc} bind def
/C15 {BL [] 0 setdash 2 copy vpt 0 360 arc closepath fill
	vpt 0 360 arc closepath} bind def
/Rec {newpath 4 2 roll moveto 1 index 0 rlineto 0 exch rlineto
	neg 0 rlineto closepath} bind def
/Square {dup Rec} bind def
/Bsquare {vpt sub exch vpt sub exch vpt2 Square} bind def
/S0 {BL [] 0 setdash 2 copy moveto 0 vpt rlineto BL Bsquare} bind def
/S1 {BL [] 0 setdash 2 copy vpt Square fill Bsquare} bind def
/S2 {BL [] 0 setdash 2 copy exch vpt sub exch vpt Square fill Bsquare} bind def
/S3 {BL [] 0 setdash 2 copy exch vpt sub exch vpt2 vpt Rec fill Bsquare} bind def
/S4 {BL [] 0 setdash 2 copy exch vpt sub exch vpt sub vpt Square fill Bsquare} bind def
/S5 {BL [] 0 setdash 2 copy 2 copy vpt Square fill
	exch vpt sub exch vpt sub vpt Square fill Bsquare} bind def
/S6 {BL [] 0 setdash 2 copy exch vpt sub exch vpt sub vpt vpt2 Rec fill Bsquare} bind def
/S7 {BL [] 0 setdash 2 copy exch vpt sub exch vpt sub vpt vpt2 Rec fill
	2 copy vpt Square fill Bsquare} bind def
/S8 {BL [] 0 setdash 2 copy vpt sub vpt Square fill Bsquare} bind def
/S9 {BL [] 0 setdash 2 copy vpt sub vpt vpt2 Rec fill Bsquare} bind def
/S10 {BL [] 0 setdash 2 copy vpt sub vpt Square fill 2 copy exch vpt sub exch vpt Square fill
	Bsquare} bind def
/S11 {BL [] 0 setdash 2 copy vpt sub vpt Square fill 2 copy exch vpt sub exch vpt2 vpt Rec fill
	Bsquare} bind def
/S12 {BL [] 0 setdash 2 copy exch vpt sub exch vpt sub vpt2 vpt Rec fill Bsquare} bind def
/S13 {BL [] 0 setdash 2 copy exch vpt sub exch vpt sub vpt2 vpt Rec fill
	2 copy vpt Square fill Bsquare} bind def
/S14 {BL [] 0 setdash 2 copy exch vpt sub exch vpt sub vpt2 vpt Rec fill
	2 copy exch vpt sub exch vpt Square fill Bsquare} bind def
/S15 {BL [] 0 setdash 2 copy Bsquare fill Bsquare} bind def
/D0 {gsave translate 45 rotate 0 0 S0 stroke grestore} bind def
/D1 {gsave translate 45 rotate 0 0 S1 stroke grestore} bind def
/D2 {gsave translate 45 rotate 0 0 S2 stroke grestore} bind def
/D3 {gsave translate 45 rotate 0 0 S3 stroke grestore} bind def
/D4 {gsave translate 45 rotate 0 0 S4 stroke grestore} bind def
/D5 {gsave translate 45 rotate 0 0 S5 stroke grestore} bind def
/D6 {gsave translate 45 rotate 0 0 S6 stroke grestore} bind def
/D7 {gsave translate 45 rotate 0 0 S7 stroke grestore} bind def
/D8 {gsave translate 45 rotate 0 0 S8 stroke grestore} bind def
/D9 {gsave translate 45 rotate 0 0 S9 stroke grestore} bind def
/D10 {gsave translate 45 rotate 0 0 S10 stroke grestore} bind def
/D11 {gsave translate 45 rotate 0 0 S11 stroke grestore} bind def
/D12 {gsave translate 45 rotate 0 0 S12 stroke grestore} bind def
/D13 {gsave translate 45 rotate 0 0 S13 stroke grestore} bind def
/D14 {gsave translate 45 rotate 0 0 S14 stroke grestore} bind def
/D15 {gsave translate 45 rotate 0 0 S15 stroke grestore} bind def
/DiaE {stroke [] 0 setdash vpt add M
  hpt neg vpt neg V hpt vpt neg V
  hpt vpt V hpt neg vpt V closepath stroke} def
/BoxE {stroke [] 0 setdash exch hpt sub exch vpt add M
  0 vpt2 neg V hpt2 0 V 0 vpt2 V
  hpt2 neg 0 V closepath stroke} def
/TriUE {stroke [] 0 setdash vpt 1.12 mul add M
  hpt neg vpt -1.62 mul V
  hpt 2 mul 0 V
  hpt neg vpt 1.62 mul V closepath stroke} def
/TriDE {stroke [] 0 setdash vpt 1.12 mul sub M
  hpt neg vpt 1.62 mul V
  hpt 2 mul 0 V
  hpt neg vpt -1.62 mul V closepath stroke} def
/PentE {stroke [] 0 setdash gsave
  translate 0 hpt M 4 {72 rotate 0 hpt L} repeat
  closepath stroke grestore} def
/CircE {stroke [] 0 setdash 
  hpt 0 360 arc stroke} def
/Opaque {gsave closepath 1 setgray fill grestore 0 setgray closepath} def
/DiaW {stroke [] 0 setdash vpt add M
  hpt neg vpt neg V hpt vpt neg V
  hpt vpt V hpt neg vpt V Opaque stroke} def
/BoxW {stroke [] 0 setdash exch hpt sub exch vpt add M
  0 vpt2 neg V hpt2 0 V 0 vpt2 V
  hpt2 neg 0 V Opaque stroke} def
/TriUW {stroke [] 0 setdash vpt 1.12 mul add M
  hpt neg vpt -1.62 mul V
  hpt 2 mul 0 V
  hpt neg vpt 1.62 mul V Opaque stroke} def
/TriDW {stroke [] 0 setdash vpt 1.12 mul sub M
  hpt neg vpt 1.62 mul V
  hpt 2 mul 0 V
  hpt neg vpt -1.62 mul V Opaque stroke} def
/PentW {stroke [] 0 setdash gsave
  translate 0 hpt M 4 {72 rotate 0 hpt L} repeat
  Opaque stroke grestore} def
/CircW {stroke [] 0 setdash 
  hpt 0 360 arc Opaque stroke} def
/BoxFill {gsave Rec 1 setgray fill grestore} def
/Density {
  /Fillden exch def
  currentrgbcolor
  /ColB exch def /ColG exch def /ColR exch def
  /ColR ColR Fillden mul Fillden sub 1 add def
  /ColG ColG Fillden mul Fillden sub 1 add def
  /ColB ColB Fillden mul Fillden sub 1 add def
  ColR ColG ColB setrgbcolor} def
/BoxColFill {gsave Rec PolyFill} def
/PolyFill {gsave Density fill grestore grestore} def
/h {rlineto rlineto rlineto gsave closepath fill grestore} bind def
%
% PostScript Level 1 Pattern Fill routine for rectangles
% Usage: x y w h s a XX PatternFill
%	x,y = lower left corner of box to be filled
%	w,h = width and height of box
%	  a = angle in degrees between lines and x-axis
%	 XX = 0/1 for no/yes cross-hatch
%
/PatternFill {gsave /PFa [ 9 2 roll ] def
  PFa 0 get PFa 2 get 2 div add PFa 1 get PFa 3 get 2 div add translate
  PFa 2 get -2 div PFa 3 get -2 div PFa 2 get PFa 3 get Rec
  gsave 1 setgray fill grestore clip
  currentlinewidth 0.5 mul setlinewidth
  /PFs PFa 2 get dup mul PFa 3 get dup mul add sqrt def
  0 0 M PFa 5 get rotate PFs -2 div dup translate
  0 1 PFs PFa 4 get div 1 add floor cvi
	{PFa 4 get mul 0 M 0 PFs V} for
  0 PFa 6 get ne {
	0 1 PFs PFa 4 get div 1 add floor cvi
	{PFa 4 get mul 0 2 1 roll M PFs 0 V} for
 } if
  stroke grestore} def
%
/languagelevel where
 {pop languagelevel} {1} ifelse
 2 lt
	{/InterpretLevel1 true def}
	{/InterpretLevel1 Level1 def}
 ifelse
%
% PostScript level 2 pattern fill definitions
%
/Level2PatternFill {
/Tile8x8 {/PaintType 2 /PatternType 1 /TilingType 1 /BBox [0 0 8 8] /XStep 8 /YStep 8}
	bind def
/KeepColor {currentrgbcolor [/Pattern /DeviceRGB] setcolorspace} bind def
<< Tile8x8
 /PaintProc {0.5 setlinewidth pop 0 0 M 8 8 L 0 8 M 8 0 L stroke} 
>> matrix makepattern
/Pat1 exch def
<< Tile8x8
 /PaintProc {0.5 setlinewidth pop 0 0 M 8 8 L 0 8 M 8 0 L stroke
	0 4 M 4 8 L 8 4 L 4 0 L 0 4 L stroke}
>> matrix makepattern
/Pat2 exch def
<< Tile8x8
 /PaintProc {0.5 setlinewidth pop 0 0 M 0 8 L
	8 8 L 8 0 L 0 0 L fill}
>> matrix makepattern
/Pat3 exch def
<< Tile8x8
 /PaintProc {0.5 setlinewidth pop -4 8 M 8 -4 L
	0 12 M 12 0 L stroke}
>> matrix makepattern
/Pat4 exch def
<< Tile8x8
 /PaintProc {0.5 setlinewidth pop -4 0 M 8 12 L
	0 -4 M 12 8 L stroke}
>> matrix makepattern
/Pat5 exch def
<< Tile8x8
 /PaintProc {0.5 setlinewidth pop -2 8 M 4 -4 L
	0 12 M 8 -4 L 4 12 M 10 0 L stroke}
>> matrix makepattern
/Pat6 exch def
<< Tile8x8
 /PaintProc {0.5 setlinewidth pop -2 0 M 4 12 L
	0 -4 M 8 12 L 4 -4 M 10 8 L stroke}
>> matrix makepattern
/Pat7 exch def
<< Tile8x8
 /PaintProc {0.5 setlinewidth pop 8 -2 M -4 4 L
	12 0 M -4 8 L 12 4 M 0 10 L stroke}
>> matrix makepattern
/Pat8 exch def
<< Tile8x8
 /PaintProc {0.5 setlinewidth pop 0 -2 M 12 4 L
	-4 0 M 12 8 L -4 4 M 8 10 L stroke}
>> matrix makepattern
/Pat9 exch def
/Pattern1 {PatternBgnd KeepColor Pat1 setpattern} bind def
/Pattern2 {PatternBgnd KeepColor Pat2 setpattern} bind def
/Pattern3 {PatternBgnd KeepColor Pat3 setpattern} bind def
/Pattern4 {PatternBgnd KeepColor Landscape {Pat5} {Pat4} ifelse setpattern} bind def
/Pattern5 {PatternBgnd KeepColor Landscape {Pat4} {Pat5} ifelse setpattern} bind def
/Pattern6 {PatternBgnd KeepColor Landscape {Pat9} {Pat6} ifelse setpattern} bind def
/Pattern7 {PatternBgnd KeepColor Landscape {Pat8} {Pat7} ifelse setpattern} bind def
} def
%
%
%End of PostScript Level 2 code
%
/PatternBgnd {
  TransparentPatterns {} {gsave 1 setgray fill grestore} ifelse
} def
%
% Substitute for Level 2 pattern fill codes with
% grayscale if Level 2 support is not selected.
%
/Level1PatternFill {
/Pattern1 {0.250 Density} bind def
/Pattern2 {0.500 Density} bind def
/Pattern3 {0.750 Density} bind def
/Pattern4 {0.125 Density} bind def
/Pattern5 {0.375 Density} bind def
/Pattern6 {0.625 Density} bind def
/Pattern7 {0.875 Density} bind def
} def
%
% Now test for support of Level 2 code
%
Level1 {Level1PatternFill} {Level2PatternFill} ifelse
%
/Symbol-Oblique /Symbol findfont [1 0 .167 1 0 0] makefont
dup length dict begin {1 index /FID eq {pop pop} {def} ifelse} forall
currentdict end definefont pop
/MFshow {
   { dup 5 get 3 ge
     { 5 get 3 eq {gsave} {grestore} ifelse }
     {dup dup 0 get findfont exch 1 get scalefont setfont
     [ currentpoint ] exch dup 2 get 0 exch R dup 5 get 2 ne {dup dup 6
     get exch 4 get {Gshow} {stringwidth pop 0 R} ifelse }if dup 5 get 0 eq
     {dup 3 get {2 get neg 0 exch R pop} {pop aload pop M} ifelse} {dup 5
     get 1 eq {dup 2 get exch dup 3 get exch 6 get stringwidth pop -2 div
     dup 0 R} {dup 6 get stringwidth pop -2 div 0 R 6 get
     show 2 index {aload pop M neg 3 -1 roll neg R pop pop} {pop pop pop
     pop aload pop M} ifelse }ifelse }ifelse }
     ifelse }
   forall} def
/Gswidth {dup type /stringtype eq {stringwidth} {pop (n) stringwidth} ifelse} def
/MFwidth {0 exch { dup 5 get 3 ge { 5 get 3 eq { 0 } { pop } ifelse }
 {dup 3 get{dup dup 0 get findfont exch 1 get scalefont setfont
     6 get Gswidth pop add} {pop} ifelse} ifelse} forall} def
/MLshow { currentpoint stroke M
  0 exch R
  Blacktext {gsave 0 setgray MFshow grestore} {MFshow} ifelse } bind def
/MRshow { currentpoint stroke M
  exch dup MFwidth neg 3 -1 roll R
  Blacktext {gsave 0 setgray MFshow grestore} {MFshow} ifelse } bind def
/MCshow { currentpoint stroke M
  exch dup MFwidth -2 div 3 -1 roll R
  Blacktext {gsave 0 setgray MFshow grestore} {MFshow} ifelse } bind def
/XYsave    { [( ) 1 2 true false 3 ()] } bind def
/XYrestore { [( ) 1 2 true false 4 ()] } bind def
end
%%EndProlog
gnudict begin
gsave
doclip
50 50 translate
0.050 0.050 scale
0 setgray
newpath
(Arial) findfont 150 scalefont setfont
1.000 UL
LTb
825 3564 M
31 0 V
6073 0 R
-31 0 V
stroke
735 3564 M
[ [(Arial) 150.0 0.0 true true 0 (-0.01)]
] -50.0 MRshow
1.000 UL
LTb
825 4042 M
31 0 V
6073 0 R
-31 0 V
stroke
735 4042 M
[ [(Arial) 150.0 0.0 true true 0 ( 0)]
] -50.0 MRshow
1.000 UL
LTb
825 4519 M
31 0 V
6073 0 R
-31 0 V
stroke
735 4519 M
[ [(Arial) 150.0 0.0 true true 0 ( 0.01)]
] -50.0 MRshow
1.000 UL
LTb
825 3325 M
0 31 V
763 -31 R
0 31 V
763 -31 R
0 31 V
763 -31 R
0 31 V
763 -31 R
0 31 V
763 -31 R
0 31 V
763 -31 R
0 31 V
763 -31 R
0 31 V
763 -31 R
0 31 V
stroke
LTa
825 4042 M
6104 0 V
stroke
LTb
825 4758 N
0 -1433 V
6104 0 V
0 1433 V
-6104 0 V
Z stroke
LCb setrgbcolor
120 4041 M
currentpoint gsave translate -270 rotate 0 0 moveto
[ [(Symbol) 150.0 0.0 true true 0 (D)]
[(Arial) 150.0 0.0 true true 0 (n\(R\))]
] -50.0 MCshow
grestore
LTb
1.000 UP
1.000 UL
LTb
% Begin plot #1
3.000 UL
LT0
0.14 0.36 1.00 C 825 4042 M
977 3325 L
1 0 R
152 1226 V
153 -839 V
152 430 V
153 102 V
153 -640 V
152 948 V
153 -898 V
152 530 V
153 43 V
153 -609 V
152 927 V
153 -895 V
152 529 V
153 18 V
153 -576 V
152 913 V
153 -889 V
152 564 V
153 2 V
153 -587 V
152 928 V
153 -891 V
152 531 V
153 18 V
153 -584 V
152 891 V
153 -855 V
152 525 V
153 -19 V
153 -534 V
152 895 V
153 -876 V
152 561 V
153 -21 V
153 -576 V
152 917 V
153 -859 V
152 523 V
153 3 V
% End plot #1
% Begin plot #2
1.000 UP
stroke
LT0
0.14 0.36 1.00 C 825 4042 Crs
5403 4168 Crs
1435 4142 Crs
2656 4545 Crs
3572 3645 Crs
5098 3662 Crs
1130 4551 Crs
4793 3626 Crs
4182 4552 Crs
3877 4211 Crs
2961 4179 Crs
2351 4227 Crs
6013 4214 Crs
5708 4529 Crs
2046 3654 Crs
4487 4192 Crs
3267 3621 Crs
1741 3604 Crs
6624 3675 Crs
6319 3617 Crs
6929 4201 Crs
5556 3634 Crs
1588 4244 Crs
3114 4197 Crs
1283 3712 Crs
3724 4209 Crs
5250 4187 Crs
4335 3661 Crs
2198 4184 Crs
5861 3653 Crs
4030 3624 Crs
4945 4517 Crs
6166 4193 Crs
1893 4552 Crs
2809 3650 Crs
2504 3618 Crs
3419 4534 Crs
4640 4210 Crs
6471 4534 Crs
6776 4198 Crs
% End plot #2
% Begin plot #3
1.000 UL
LT0
0.90 0.22 0.00 C LCb setrgbcolor
6659 3426 M
[ [(Symbol) 120.0 0.0 true true 0 (e)]
[(Arial) 120.0 0.0 true true 0 ( = -0.3)]
] -40.0 MRshow
LT0
0.90 0.22 0.00 C 6749 3426 M
825 4196 M
12 -98 V
12 -101 V
13 -99 V
12 -93 V
12 -84 V
12 -71 V
13 -55 V
12 -37 V
12 -17 V
12 3 V
13 23 V
12 43 V
12 59 V
12 75 V
12 87 V
13 95 V
12 101 V
12 100 V
12 97 V
13 90 V
12 79 V
12 64 V
12 48 V
13 29 V
12 9 V
12 -11 V
12 -31 V
13 -50 V
12 -66 V
12 -81 V
12 -90 V
12 -98 V
13 -101 V
12 -100 V
12 -94 V
12 -86 V
13 -73 V
12 -58 V
12 -40 V
12 -21 V
13 -1 V
12 20 V
12 39 V
12 57 V
12 72 V
13 85 V
12 94 V
12 100 V
12 100 V
13 98 V
12 92 V
12 81 V
12 67 V
13 51 V
12 32 V
12 13 V
12 -8 V
12 -27 V
13 -47 V
12 -64 V
12 -77 V
12 -90 V
13 -96 V
12 -101 V
12 -100 V
12 -96 V
13 -88 V
12 -75 V
12 -61 V
12 -44 V
13 -24 V
12 -4 V
12 16 V
12 35 V
12 54 V
13 70 V
12 83 V
12 93 V
12 99 V
13 100 V
12 99 V
12 93 V
12 83 V
13 70 V
12 54 V
12 36 V
12 16 V
12 -4 V
13 -24 V
12 -43 V
12 -61 V
12 -76 V
13 -87 V
12 -96 V
12 -100 V
12 -101 V
13 -96 V
12 -90 V
12 -78 V
12 -63 V
12 -47 V
13 -28 V
12 -8 V
stroke 2085 3540 M
12 12 V
12 33 V
13 50 V
12 67 V
12 81 V
12 92 V
13 98 V
12 100 V
12 100 V
12 94 V
13 85 V
12 73 V
12 57 V
12 39 V
12 20 V
13 -1 V
12 -20 V
12 -40 V
12 -58 V
13 -73 V
12 -86 V
12 -94 V
12 -100 V
13 -101 V
12 -98 V
12 -90 V
12 -81 V
12 -66 V
13 -50 V
12 -31 V
12 -12 V
12 9 V
13 29 V
12 47 V
12 64 V
12 79 V
13 90 V
12 97 V
12 100 V
12 101 V
12 95 V
13 87 V
12 75 V
12 60 V
12 42 V
13 24 V
12 3 V
12 -17 V
12 -37 V
13 -55 V
12 -70 V
12 -84 V
12 -93 V
12 -99 V
13 -101 V
12 -98 V
12 -93 V
12 -82 V
13 -70 V
12 -53 V
12 -34 V
12 -15 V
13 5 V
12 25 V
12 44 V
12 62 V
13 76 V
12 88 V
12 96 V
12 100 V
12 101 V
13 96 V
12 89 V
12 78 V
12 62 V
13 46 V
12 27 V
12 7 V
12 -14 V
13 -33 V
12 -52 V
12 -67 V
12 -82 V
12 -92 V
13 -98 V
12 -101 V
12 -99 V
12 -94 V
13 -85 V
12 -71 V
12 -56 V
12 -39 V
13 -18 V
12 1 V
12 22 V
12 41 V
12 59 V
13 73 V
12 87 V
12 95 V
12 99 V
13 101 V
12 98 V
12 90 V
stroke 3357 4308 M
12 80 V
13 65 V
12 49 V
12 31 V
12 10 V
13 -10 V
12 -30 V
12 -48 V
12 -65 V
12 -80 V
13 -90 V
12 -97 V
12 -101 V
12 -100 V
13 -95 V
12 -86 V
12 -75 V
12 -59 V
13 -41 V
12 -22 V
12 -2 V
12 18 V
12 37 V
13 56 V
12 71 V
12 84 V
12 94 V
13 99 V
12 101 V
12 99 V
12 92 V
13 81 V
12 69 V
12 52 V
12 34 V
12 14 V
13 -7 V
12 -26 V
12 -45 V
12 -63 V
13 -77 V
12 -88 V
12 -96 V
12 -101 V
13 -100 V
12 -96 V
12 -89 V
12 -76 V
13 -62 V
12 -45 V
12 -26 V
12 -6 V
12 15 V
13 34 V
12 53 V
12 69 V
12 82 V
13 92 V
12 98 V
12 101 V
12 99 V
13 94 V
12 84 V
12 71 V
12 55 V
12 37 V
13 18 V
12 -3 V
12 -23 V
12 -42 V
13 -59 V
12 -75 V
12 -87 V
12 -95 V
13 -100 V
12 -100 V
12 -98 V
12 -90 V
12 -79 V
13 -64 V
12 -48 V
12 -30 V
12 -9 V
13 11 V
12 31 V
12 49 V
12 66 V
13 80 V
12 91 V
12 98 V
12 100 V
13 100 V
12 95 V
12 86 V
12 73 V
12 58 V
13 41 V
12 21 V
12 1 V
12 -19 V
13 -39 V
12 -56 V
12 -73 V
12 -84 V
stroke 4629 4270 M
13 -94 V
12 -100 V
12 -101 V
12 -98 V
12 -91 V
13 -81 V
12 -68 V
12 -51 V
12 -33 V
13 -13 V
12 7 V
12 28 V
12 46 V
13 63 V
12 78 V
12 89 V
12 97 V
12 100 V
13 101 V
12 95 V
12 88 V
12 76 V
13 61 V
12 44 V
12 25 V
12 4 V
13 -15 V
12 -36 V
12 -53 V
12 -70 V
13 -82 V
12 -93 V
12 -99 V
12 -101 V
12 -99 V
13 -93 V
12 -83 V
12 -70 V
12 -54 V
13 -36 V
12 -17 V
12 4 V
12 24 V
13 42 V
12 61 V
12 75 V
12 87 V
12 96 V
13 100 V
12 101 V
12 97 V
12 89 V
13 79 V
12 63 V
12 47 V
12 29 V
13 8 V
12 -12 V
12 -32 V
12 -50 V
12 -67 V
13 -81 V
12 -91 V
12 -98 V
12 -101 V
13 -99 V
12 -95 V
12 -85 V
12 -73 V
13 -57 V
12 -39 V
12 -21 V
12 1 V
12 20 V
13 39 V
12 58 V
12 73 V
12 85 V
13 95 V
12 99 V
12 101 V
12 98 V
13 91 V
12 81 V
12 66 V
12 50 V
13 32 V
12 12 V
12 -8 V
12 -29 V
12 -47 V
13 -64 V
12 -79 V
12 -89 V
12 -97 V
13 -101 V
12 -100 V
12 -95 V
12 -88 V
13 -75 V
12 -60 V
12 -43 V
12 -23 V
12 -4 V
stroke 5901 3541 M
13 17 V
12 36 V
12 54 V
12 71 V
13 83 V
12 93 V
12 99 V
12 101 V
13 99 V
12 92 V
12 83 V
12 69 V
12 54 V
13 35 V
12 15 V
12 -4 V
12 -25 V
13 -44 V
12 -62 V
12 -76 V
12 -87 V
13 -96 V
12 -101 V
12 -100 V
12 -97 V
13 -89 V
12 -77 V
12 -63 V
12 -47 V
12 -27 V
13 -7 V
12 13 V
12 33 V
12 52 V
13 67 V
12 81 V
12 92 V
12 98 V
13 101 V
12 100 V
12 94 V
12 84 V
12 72 V
13 57 V
12 38 V
12 19 V
12 -1 V
13 -21 V
12 -41 V
12 -58 V
12 -74 V
13 -86 V
12 -95 V
12 -100 V
12 -100 V
12 -98 V
13 -91 V
12 -79 V
12 -66 V
12 -50 V
13 -30 V
12 -11 V
12 9 V
12 30 V
13 48 V
12 65 V
12 79 V
12 90 V
13 97 V
12 101 V
12 100 V
12 95 V
12 87 V
13 74 V
12 60 V
12 42 V
12 22 V
13 3 V
12 -18 V
12 -38 V
12 -55 V
13 -71 V
12 -84 V
12 -93 V
% End plot #3
stroke
LTb
825 4758 N
0 -1433 V
6104 0 V
0 1433 V
-6104 0 V
Z stroke
1.000 UP
1.000 UL
LTb
1.000 UL
LTb
825 2127 M
31 0 V
6073 0 R
-31 0 V
stroke
735 2127 M
[ [(Arial) 150.0 0.0 true true 0 (-0.01)]
] -50.0 MRshow
1.000 UL
LTb
825 2605 M
31 0 V
6073 0 R
-31 0 V
stroke
735 2605 M
[ [(Arial) 150.0 0.0 true true 0 ( 0)]
] -50.0 MRshow
1.000 UL
LTb
825 3083 M
31 0 V
6073 0 R
-31 0 V
stroke
735 3083 M
[ [(Arial) 150.0 0.0 true true 0 ( 0.01)]
] -50.0 MRshow
1.000 UL
LTb
825 1888 M
0 31 V
763 -31 R
0 31 V
763 -31 R
0 31 V
763 -31 R
0 31 V
763 -31 R
0 31 V
763 -31 R
0 31 V
763 -31 R
0 31 V
763 -31 R
0 31 V
763 -31 R
0 31 V
stroke
LTa
825 2605 M
6104 0 V
stroke
LTb
825 3322 N
0 -1434 V
6104 0 V
0 1434 V
-6104 0 V
Z stroke
LCb setrgbcolor
120 2605 M
currentpoint gsave translate -270 rotate 0 0 moveto
[ [(Symbol) 150.0 0.0 true true 0 (D)]
[(Arial) 150.0 0.0 true true 0 (n\(R\))]
] -50.0 MCshow
grestore
LTb
1.000 UP
1.000 UL
LTb
% Begin plot #1
3.000 UL
LT0
0.14 0.36 1.00 C 825 2605 M
978 2014 L
152 966 V
153 -607 V
152 464 V
153 -470 V
153 457 V
152 -424 V
153 416 V
152 -422 V
153 411 V
153 -385 V
152 407 V
153 -437 V
152 411 V
153 -395 V
153 392 V
152 -421 V
153 405 V
152 -332 V
153 355 V
153 -399 V
152 396 V
153 -355 V
152 365 V
153 -432 V
153 388 V
152 -340 V
153 369 V
152 -419 V
153 418 V
153 -328 V
152 326 V
153 -387 V
152 367 V
153 -278 V
153 295 V
152 -412 V
153 408 V
152 -357 V
153 368 V
% End plot #1
% Begin plot #2
1.000 UP
stroke
LT0
0.14 0.36 1.00 C 3877 2805 Crs
5403 2796 Crs
6929 2798 Crs
1130 2980 Crs
4793 2768 Crs
3572 2782 Crs
4487 2812 Crs
1741 2824 Crs
2351 2805 Crs
1435 2837 Crs
2046 2816 Crs
2961 2801 Crs
2656 2827 Crs
6624 2787 Crs
4182 2802 Crs
5098 2797 Crs
3267 2798 Crs
5708 2794 Crs
6319 2791 Crs
4030 2406 Crs
4945 2428 Crs
5556 2468 Crs
3724 2450 Crs
1588 2367 Crs
1283 2373 Crs
3114 2406 Crs
2504 2420 Crs
6776 2430 Crs
4640 2380 Crs
1893 2400 Crs
2198 2394 Crs
5250 2378 Crs
2809 2390 Crs
4335 2447 Crs
3419 2377 Crs
5861 2407 Crs
6471 2379 Crs
6013 2774 Crs
825 2605 Crs
6166 2496 Crs
978 2014 Crs
% End plot #2
% Begin plot #3
1.000 UL
LT0
0.90 0.22 0.00 C LCb setrgbcolor
6659 1989 M
[ [(Symbol) 120.0 0.0 true true 0 (e)]
[(Arial) 120.0 0.0 true true 0 (=0.0)]
] -40.0 MRshow
LT0
0.90 0.22 0.00 C 6749 1989 M
825 2830 M
12 -84 V
12 -93 V
13 -97 V
12 -93 V
12 -84 V
12 -69 V
13 -52 V
12 -29 V
12 -6 V
12 19 V
13 41 V
12 62 V
12 78 V
12 90 V
12 95 V
13 95 V
12 89 V
12 77 V
12 61 V
13 40 V
12 17 V
12 -7 V
12 -31 V
13 -53 V
12 -70 V
12 -85 V
12 -94 V
13 -96 V
12 -92 V
12 -84 V
12 -69 V
12 -50 V
13 -28 V
12 -4 V
12 20 V
12 42 V
13 63 V
12 79 V
12 90 V
12 95 V
13 95 V
12 89 V
12 76 V
12 60 V
12 38 V
13 16 V
12 -8 V
12 -32 V
12 -54 V
13 -72 V
12 -85 V
12 -94 V
12 -96 V
13 -92 V
12 -83 V
12 -68 V
12 -49 V
12 -27 V
13 -3 V
12 21 V
12 44 V
12 64 V
13 79 V
12 91 V
12 95 V
12 95 V
13 88 V
12 76 V
12 58 V
12 38 V
13 14 V
12 -9 V
12 -34 V
12 -54 V
12 -73 V
13 -86 V
12 -94 V
12 -96 V
12 -92 V
13 -82 V
12 -67 V
12 -48 V
12 -25 V
13 -2 V
12 22 V
12 45 V
12 65 V
12 80 V
13 91 V
12 95 V
12 95 V
12 88 V
13 74 V
12 58 V
12 36 V
12 13 V
13 -11 V
12 -34 V
12 -56 V
12 -73 V
12 -87 V
13 -94 V
12 -96 V
stroke 2085 2536 M
12 -91 V
12 -82 V
13 -66 V
12 -47 V
12 -24 V
12 -1 V
13 24 V
12 46 V
12 65 V
12 81 V
13 92 V
12 96 V
12 94 V
12 87 V
12 74 V
13 56 V
12 36 V
12 11 V
12 -12 V
13 -35 V
12 -57 V
12 -74 V
12 -88 V
13 -94 V
12 -96 V
12 -91 V
12 -81 V
12 -65 V
13 -46 V
12 -23 V
12 1 V
12 25 V
13 47 V
12 66 V
12 82 V
12 92 V
13 96 V
12 94 V
12 86 V
12 73 V
12 56 V
13 34 V
12 10 V
12 -13 V
12 -37 V
13 -58 V
12 -75 V
12 -87 V
12 -95 V
13 -96 V
12 -91 V
12 -80 V
12 -64 V
12 -44 V
13 -22 V
12 2 V
12 26 V
12 48 V
13 67 V
12 83 V
12 92 V
12 96 V
13 94 V
12 85 V
12 73 V
12 54 V
13 33 V
12 9 V
12 -15 V
12 -38 V
12 -58 V
13 -76 V
12 -88 V
12 -95 V
12 -96 V
13 -90 V
12 -80 V
12 -63 V
12 -43 V
13 -21 V
12 4 V
12 27 V
12 49 V
12 68 V
13 83 V
12 93 V
12 96 V
12 93 V
13 86 V
12 71 V
12 53 V
12 32 V
13 8 V
12 -16 V
12 -39 V
12 -60 V
12 -77 V
13 -88 V
12 -95 V
12 -96 V
12 -90 V
13 -78 V
12 -63 V
12 -42 V
stroke 3357 2243 M
12 -19 V
13 4 V
12 29 V
12 50 V
12 70 V
13 83 V
12 93 V
12 96 V
12 93 V
12 85 V
13 71 V
12 52 V
12 30 V
12 7 V
13 -18 V
12 -40 V
12 -61 V
12 -77 V
13 -89 V
12 -96 V
12 -95 V
12 -89 V
12 -78 V
13 -62 V
12 -41 V
12 -18 V
12 6 V
13 30 V
12 52 V
12 70 V
12 84 V
13 93 V
12 96 V
12 93 V
12 84 V
12 70 V
13 51 V
12 29 V
12 5 V
12 -18 V
13 -42 V
12 -61 V
12 -79 V
12 -89 V
13 -96 V
12 -95 V
12 -89 V
12 -77 V
13 -60 V
12 -40 V
12 -17 V
12 7 V
12 31 V
13 53 V
12 71 V
12 85 V
12 93 V
13 96 V
12 93 V
12 83 V
12 69 V
13 50 V
12 28 V
12 4 V
12 -20 V
12 -42 V
13 -63 V
12 -79 V
12 -90 V
12 -96 V
13 -95 V
12 -88 V
12 -77 V
12 -59 V
13 -39 V
12 -15 V
12 8 V
12 33 V
12 53 V
13 72 V
12 86 V
12 93 V
12 96 V
13 93 V
12 82 V
12 68 V
12 49 V
13 27 V
12 3 V
12 -21 V
12 -44 V
13 -64 V
12 -80 V
12 -90 V
12 -96 V
12 -95 V
13 -88 V
12 -75 V
12 -59 V
12 -37 V
13 -14 V
12 10 V
12 33 V
12 55 V
stroke 4629 2321 M
13 72 V
12 86 V
12 94 V
12 96 V
12 92 V
13 82 V
12 67 V
12 48 V
12 26 V
13 1 V
12 -22 V
12 -45 V
12 -65 V
13 -80 V
12 -91 V
12 -96 V
12 -95 V
12 -87 V
13 -75 V
12 -57 V
12 -36 V
12 -13 V
13 11 V
12 34 V
12 56 V
12 74 V
13 86 V
12 94 V
12 96 V
12 92 V
13 81 V
12 66 V
12 47 V
12 24 V
12 1 V
13 -24 V
12 -46 V
12 -66 V
12 -81 V
13 -91 V
12 -96 V
12 -94 V
12 -87 V
13 -74 V
12 -57 V
12 -35 V
12 -11 V
12 12 V
13 36 V
12 57 V
12 74 V
12 87 V
13 95 V
12 95 V
12 92 V
12 80 V
13 65 V
12 46 V
12 23 V
12 -1 V
12 -25 V
13 -47 V
12 -67 V
12 -82 V
12 -91 V
13 -96 V
12 -94 V
12 -87 V
12 -73 V
13 -55 V
12 -34 V
12 -10 V
12 13 V
12 37 V
13 58 V
12 75 V
12 88 V
12 95 V
13 95 V
12 91 V
12 80 V
12 64 V
13 45 V
12 21 V
12 -2 V
12 -26 V
13 -48 V
12 -68 V
12 -82 V
12 -92 V
12 -96 V
13 -94 V
12 -86 V
12 -72 V
12 -54 V
13 -33 V
12 -9 V
12 15 V
12 38 V
13 59 V
12 76 V
12 88 V
12 95 V
12 95 V
stroke 5901 2689 M
13 91 V
12 79 V
12 63 V
12 43 V
13 21 V
12 -4 V
12 -27 V
12 -49 V
13 -69 V
12 -83 V
12 -92 V
12 -96 V
12 -94 V
13 -85 V
12 -72 V
12 -53 V
12 -31 V
13 -8 V
12 16 V
12 39 V
12 60 V
13 77 V
12 89 V
12 95 V
12 95 V
13 90 V
12 79 V
12 62 V
12 42 V
12 19 V
13 -5 V
12 -28 V
12 -51 V
12 -69 V
13 -84 V
12 -92 V
12 -97 V
12 -93 V
13 -84 V
12 -71 V
12 -52 V
12 -30 V
12 -7 V
13 18 V
12 40 V
12 61 V
12 78 V
13 89 V
12 95 V
12 95 V
12 90 V
13 78 V
12 61 V
12 41 V
12 18 V
12 -6 V
13 -30 V
12 -52 V
12 -70 V
12 -84 V
13 -94 V
12 -96 V
12 -93 V
12 -83 V
13 -70 V
12 -51 V
12 -29 V
12 -5 V
13 18 V
12 42 V
12 62 V
12 78 V
12 90 V
13 95 V
12 95 V
12 89 V
12 77 V
13 61 V
12 39 V
12 17 V
12 -7 V
13 -32 V
12 -52 V
12 -71 V
% End plot #3
stroke
LTb
825 3322 N
0 -1434 V
6104 0 V
0 1434 V
-6104 0 V
Z stroke
1.000 UP
1.000 UL
LTb
1.000 UL
LTb
825 714 M
31 0 V
6073 0 R
-31 0 V
stroke
735 714 M
[ [(Arial) 150.0 0.0 true true 0 (-0.01)]
] -50.0 MRshow
1.000 UL
LTb
825 1183 M
31 0 V
6073 0 R
-31 0 V
stroke
735 1183 M
[ [(Arial) 150.0 0.0 true true 0 ( 0)]
] -50.0 MRshow
1.000 UL
LTb
825 1652 M
31 0 V
6073 0 R
-31 0 V
stroke
735 1652 M
[ [(Arial) 150.0 0.0 true true 0 ( 0.01)]
] -50.0 MRshow
1.000 UL
LTb
825 480 M
0 31 V
stroke
825 330 M
[ [(Arial) 150.0 0.0 true true 0 (0)]
] -50.0 MCshow
1.000 UL
LTb
1588 480 M
0 31 V
stroke
1588 330 M
[ [(Arial) 150.0 0.0 true true 0 (5)]
] -50.0 MCshow
1.000 UL
LTb
2351 480 M
0 31 V
stroke
2351 330 M
[ [(Arial) 150.0 0.0 true true 0 (10)]
] -50.0 MCshow
1.000 UL
LTb
3114 480 M
0 31 V
stroke
3114 330 M
[ [(Arial) 150.0 0.0 true true 0 (15)]
] -50.0 MCshow
1.000 UL
LTb
3877 480 M
0 31 V
stroke
3877 330 M
[ [(Arial) 150.0 0.0 true true 0 (20)]
] -50.0 MCshow
1.000 UL
LTb
4640 480 M
0 31 V
stroke
4640 330 M
[ [(Arial) 150.0 0.0 true true 0 (25)]
] -50.0 MCshow
1.000 UL
LTb
5403 480 M
0 31 V
stroke
5403 330 M
[ [(Arial) 150.0 0.0 true true 0 (30)]
] -50.0 MCshow
1.000 UL
LTb
6166 480 M
0 31 V
stroke
6166 330 M
[ [(Arial) 150.0 0.0 true true 0 (35)]
] -50.0 MCshow
1.000 UL
LTb
6929 480 M
0 31 V
stroke
6929 330 M
[ [(Arial) 150.0 0.0 true true 0 (40)]
] -50.0 MCshow
1.000 UL
LTb
1.000 UL
LTa
825 1183 M
6104 0 V
stroke
LTb
825 1886 N
825 480 L
6104 0 V
0 1406 V
-6104 0 V
Z stroke
LCb setrgbcolor
120 1183 M
currentpoint gsave translate -270 rotate 0 0 moveto
[ [(Symbol) 150.0 0.0 true true 0 (D)]
[(Arial) 150.0 0.0 true true 0 (n\(R\))]
] -50.0 MCshow
grestore
LTb
LCb setrgbcolor
3877 105 M
[ [(Arial) 150.0 0.0 true true 0 (|R|)]
] -50.0 MCshow
LTb
1.000 UP
1.000 UL
LTb
% Begin plot #1
3.000 UL
LT0
0.14 0.36 1.00 C 825 1183 M
978 982 L
152 28 V
153 250 V
152 189 V
1588 810 L
153 419 V
152 302 V
2046 842 L
152 289 V
153 434 V
2504 920 L
152 95 V
153 566 V
152 -572 V
153 -67 V
153 634 V
152 -471 V
3572 864 L
152 651 V
153 -309 V
4030 822 L
152 648 V
153 -144 V
4487 780 L
153 615 V
153 -12 V
4945 802 L
153 483 V
152 208 V
5403 809 L
153 399 V
152 335 V
5861 862 L
152 244 V
153 447 V
6319 925 L
152 92 V
153 586 V
152 -582 V
153 -81 V
% End plot #1
% Begin plot #2
1.000 UP
stroke
LT0
0.14 0.36 1.00 C 6929 940 Crs
1741 1229 Crs
6624 1603 Crs
2351 1565 Crs
5708 1543 Crs
4487 780 Crs
6319 925 Crs
2046 842 Crs
2656 1015 Crs
5098 1285 Crs
5403 809 Crs
4793 1383 Crs
2961 1009 Crs
3572 864 Crs
4182 1470 Crs
3267 1576 Crs
1435 1449 Crs
3877 1206 Crs
1130 1010 Crs
1893 1531 Crs
2504 920 Crs
6471 1017 Crs
5861 862 Crs
2809 1581 Crs
5250 1493 Crs
5556 1208 Crs
6776 1021 Crs
2198 1131 Crs
4945 802 Crs
4335 1326 Crs
1588 810 Crs
4030 822 Crs
4640 1395 Crs
3724 1515 Crs
3419 1105 Crs
3114 942 Crs
6013 1106 Crs
1283 1260 Crs
825 1183 Crs
6166 1553 Crs
978 982 Crs
% End plot #2
% Begin plot #3
1.000 UL
LT0
0.90 0.22 0.00 C LCb setrgbcolor
6659 581 M
[ [(Symbol) 120.0 0.0 true true 0 (e)]
[(Arial) 120.0 0.0 true true 0 ( = 0.5)]
] -40.0 MRshow
LT0
0.90 0.22 0.00 C 6749 581 M
825 1414 M
12 -120 V
12 -133 V
13 -131 V
874 917 L
12 -82 V
12 -42 V
13 4 V
12 48 V
12 88 V
12 117 V
13 132 V
12 132 V
12 117 V
12 88 V
12 50 V
13 4 V
12 -41 V
12 -81 V
12 -113 V
13 -130 V
12 -134 V
12 -120 V
12 -95 V
13 -56 V
12 -12 V
12 33 V
12 75 V
13 108 V
12 128 V
12 134 V
12 124 V
12 100 V
13 63 V
12 21 V
12 -26 V
12 -68 V
13 -103 V
12 -126 V
12 -134 V
12 -127 V
13 -105 V
12 -70 V
12 -28 V
12 17 V
12 61 V
13 98 V
12 123 V
12 134 V
12 129 V
13 110 V
12 77 V
12 36 V
12 -10 V
13 -54 V
12 -92 V
12 -119 V
12 -133 V
12 -131 V
13 -114 V
12 -84 V
12 -44 V
12 2 V
13 46 V
12 86 V
12 116 V
12 132 V
13 132 V
12 118 V
12 90 V
12 51 V
13 7 V
12 -39 V
12 -80 V
12 -111 V
12 -130 V
13 -134 V
12 -122 V
12 -95 V
12 -58 V
13 -15 V
12 31 V
12 74 V
12 106 V
13 128 V
12 134 V
12 125 V
12 101 V
12 65 V
13 23 V
12 -24 V
12 -66 V
12 -102 V
13 -125 V
12 -134 V
12 -128 V
12 -106 V
13 -72 V
12 -30 V
12 15 V
12 60 V
12 96 V
13 122 V
12 134 V
12 130 V
12 110 V
13 79 V
12 38 V
12 -7 V
stroke 2146 1567 M
12 -53 V
13 -90 V
12 -119 V
12 -132 V
12 -132 V
13 -115 V
12 -85 V
12 -46 V
12 0 V
12 44 V
13 85 V
12 115 V
12 131 V
12 133 V
13 119 V
12 91 V
12 53 V
12 8 V
13 -37 V
12 -78 V
12 -110 V
12 -130 V
12 -133 V
13 -123 V
12 -97 V
12 -60 V
12 -16 V
13 29 V
12 72 V
12 105 V
12 127 V
13 134 V
12 126 V
12 102 V
12 67 V
12 25 V
13 -22 V
12 -64 V
12 -101 V
12 -124 V
13 -134 V
12 -128 V
12 -108 V
12 -74 V
13 -32 V
12 14 V
12 57 V
12 95 V
12 121 V
13 134 V
12 130 V
12 112 V
12 81 V
13 39 V
12 -5 V
12 -50 V
12 -89 V
13 -118 V
12 -132 V
12 -132 V
12 -116 V
13 -87 V
12 -48 V
12 -2 V
12 43 V
12 83 V
13 113 V
12 131 V
12 133 V
12 120 V
13 93 V
12 55 V
12 10 V
12 -35 V
13 -77 V
12 -109 V
12 -129 V
12 -134 V
12 -123 V
13 -98 V
12 -62 V
12 -18 V
12 27 V
13 70 V
12 104 V
12 126 V
12 135 V
13 126 V
12 103 V
12 69 V
12 27 V
12 -20 V
13 -63 V
12 -99 V
12 -123 V
12 -134 V
13 -129 V
12 -108 V
12 -76 V
12 -34 V
13 11 V
12 56 V
12 93 V
12 121 V
stroke 3418 1072 M
13 133 V
12 131 V
12 113 V
12 82 V
12 42 V
13 -4 V
12 -48 V
12 -88 V
12 -116 V
13 -133 V
12 -132 V
12 -117 V
12 -88 V
13 -49 V
12 -5 V
12 41 V
12 81 V
12 113 V
13 130 V
12 133 V
12 121 V
12 94 V
13 57 V
12 12 V
12 -33 V
12 -74 V
13 -108 V
12 -129 V
12 -134 V
12 -124 V
12 -99 V
13 -64 V
12 -21 V
12 26 V
12 68 V
13 103 V
12 126 V
12 134 V
12 127 V
13 104 V
12 71 V
12 28 V
12 -17 V
13 -61 V
12 -98 V
12 -123 V
12 -133 V
12 -130 V
13 -109 V
12 -78 V
12 -36 V
12 10 V
13 54 V
12 92 V
12 119 V
12 133 V
13 131 V
12 114 V
12 84 V
12 44 V
12 -2 V
13 -46 V
12 -86 V
12 -116 V
12 -132 V
13 -132 V
12 -118 V
12 -90 V
12 -51 V
13 -7 V
12 39 V
12 80 V
12 111 V
12 130 V
13 134 V
12 121 V
12 96 V
12 58 V
13 15 V
12 -31 V
12 -73 V
12 -107 V
13 -128 V
12 -134 V
12 -125 V
12 -101 V
13 -65 V
12 -23 V
12 24 V
12 66 V
12 102 V
13 125 V
12 134 V
12 127 V
12 106 V
13 73 V
12 30 V
12 -15 V
12 -60 V
13 -96 V
12 -122 V
12 -134 V
12 -129 V
12 -111 V
stroke 4690 909 M
13 -79 V
12 -38 V
12 7 V
12 52 V
13 91 V
12 118 V
12 133 V
12 132 V
13 115 V
12 85 V
12 46 V
12 0 V
12 -44 V
13 -85 V
12 -114 V
12 -132 V
12 -133 V
13 -119 V
12 -91 V
12 -53 V
12 -8 V
13 36 V
12 79 V
12 110 V
12 129 V
13 134 V
12 122 V
12 97 V
12 61 V
12 16 V
13 -29 V
12 -71 V
12 -106 V
12 -127 V
13 -134 V
12 -126 V
12 -102 V
12 -67 V
13 -25 V
12 22 V
12 64 V
12 100 V
12 125 V
13 134 V
12 128 V
12 107 V
12 74 V
13 33 V
12 -14 V
12 -57 V
12 -95 V
13 -121 V
12 -134 V
12 -130 V
12 -112 V
12 -80 V
13 -40 V
12 5 V
12 50 V
12 89 V
13 118 V
12 132 V
12 132 V
12 116 V
13 87 V
12 48 V
12 2 V
12 -42 V
12 -83 V
13 -114 V
12 -131 V
12 -133 V
12 -120 V
13 -93 V
12 -54 V
12 -11 V
12 35 V
13 76 V
12 109 V
12 129 V
12 134 V
13 124 V
12 98 V
12 62 V
12 18 V
12 -27 V
13 -69 V
12 -105 V
12 -126 V
12 -134 V
13 -126 V
12 -104 V
12 -69 V
12 -27 V
13 20 V
12 63 V
12 98 V
12 124 V
12 134 V
13 129 V
12 108 V
12 76 V
12 34 V
13 -11 V
stroke 5963 1564 M
12 -56 V
12 -93 V
12 -120 V
13 -134 V
12 -130 V
12 -113 V
12 -83 V
12 -41 V
13 3 V
12 48 V
12 88 V
12 116 V
13 132 V
12 133 V
12 117 V
12 88 V
13 49 V
12 5 V
12 -41 V
12 -81 V
13 -112 V
12 -131 V
12 -133 V
12 -121 V
12 -94 V
13 -57 V
12 -13 V
12 33 V
12 75 V
13 108 V
12 128 V
12 134 V
12 125 V
13 99 V
12 64 V
12 21 V
12 -26 V
12 -68 V
13 -102 V
12 -126 V
12 -134 V
12 -127 V
13 -105 V
12 -71 V
12 -28 V
12 17 V
13 61 V
12 98 V
12 122 V
12 134 V
12 129 V
13 110 V
12 78 V
12 36 V
12 -10 V
13 -53 V
12 -92 V
12 -120 V
12 -133 V
13 -131 V
12 -114 V
12 -84 V
12 -44 V
13 2 V
12 46 V
12 86 V
12 116 V
12 131 V
13 133 V
12 118 V
12 90 V
12 51 V
13 7 V
12 -39 V
12 -80 V
12 -111 V
13 -130 V
12 -133 V
12 -122 V
% End plot #3
stroke
LTb
825 1886 N
825 480 L
6104 0 V
0 1406 V
-6104 0 V
Z stroke
1.000 UP
1.000 UL
LTb
stroke
grestore
end
showpage
%%Trailer
%%DocumentFonts: Symbol Arial
